Initial exploration of Sleep apneoa
…
apboth %>%
  filter(type=='non-apnea') %>%
  nest( -sex, -yob_group, -scat ) %>%
  inner_join( target_sample) %>%
  mutate( sample = map2( data, sample_size , sample_n )) %>%
  unnest(sample) %>%
  bind_rows( ap ) %>% 
  { . } -> ap_balanced

Joining, by = c("sex", "scat", "yob_group")

ap_balanced

# A tibble: 31,346 x 13
   sex   scat   yob_group   sample_size pin      yob nservices type  item 
   <chr> <fct>  <fct>             <int> <chr>  <int>     <dbl> <chr> <chr>
 1 F     (125,… (1.95e+03,…         342 03565…  1957       137 non-… <NA> 
 2 F     (125,… (1.95e+03,…         342 06619…  1954       199 non-… <NA> 
 3 F     (125,… (1.95e+03,…         342 02009…  1953       191 non-… <NA> 
 4 F     (125,… (1.95e+03,…         342 04025…  1956       172 non-… <NA> 
 5 F     (125,… (1.95e+03,…         342 02754…  1961       162 non-… <NA> 
 6 F     (125,… (1.95e+03,…         342 08197…  1953       153 non-… <NA> 
 7 F     (125,… (1.95e+03,…         342 07638…  1955       193 non-… <NA> 
 8 F     (125,… (1.95e+03,…         342 03698…  1963       165 non-… <NA> 
 9 F     (125,… (1.95e+03,…         342 02977…  1963       128 non-… <NA> 
10 F     (125,… (1.95e+03,…         342 00363…  1955       151 non-… <NA> 
# ... with 31,336 more rows, and 4 more variables: first_service <date>,
#   last_service <date>, ndays <int>, ntests <dbl>
…
